tajajaton,0.267742,746255284
fiwkonoz,0.410028,267050516
soogabit,0.443128,650462873
unvugcij,0.517247,986632933
hodrowcat,0.673772,376599091
debrepew,0.726121,132071878
rifelbal,0.795345,824569858
niwbijwol,0.959937,92483633
biepogoz,1.08686,784830419
helatkum,1.16826,392815652
vahkunun,1.57533,15739949
jepreipi,2.27349,535702669
vubashat,2.74798,946810035
vajdakuv,3.50333,609342177
kaffovbu,5.93374,671836047
hunislof,6.21661,872555239
dewzuga,40.093,196971972
jaowucu,60.3681,525424074
ezazibu,62.2865,828953581
Copper,69.9,420
godhoiz,70.0414,47997681
cubouci,72.6704,796645852
ojpiluf,83.344,275888825
hopafow,91.008,999125960
ruihcij,91.3322,839255339
bicufaw,92.4367,645148430
lahmar,122.734,648459418
zumowi,158.811,464115359
deulad,184.62,897083251
hednev,286.76,610739116
cohru,313.333,394690461
suupgo,334.798,211306323
dizdaw,379.556,126187348
paviju,443.993,446386803
foolte,486.501,828376120
Silver,564.454,2
wukwef,627.02,149835793
sijecu,709.2,123031942
cavur,739.362,238507079
uksemu,808.561,951176479
fuwab,821.472,85964816
pewgov,822.948,200326354
olasce,861.87,602846840
zuured,980.852,270256759
pakivo,986.578,648836560
ikokel,988.891,878751702
jucce,1441.79,158019358
wibec,1575.41,434682317
hibda,2210.05,693637952
jatko,3820.38,623913781
baeb,4722.09,960842757
riple,5000.79,111875649
uvmol,5099.38,950127379
sulu,5840.47,913865064
bewwa,6958.81,453044111
tonbo,7366.79,861351752
teregu,8318.72,142403843
pahvu,8629.8,758593879
zucaj,8938.28,218244824
rimlo,9547.04,225073210
umfu,25618.2,451639504
zovi,26622.1,833630399
vafo,30332.7,806916443
kaco,36199.8,227651494
aka,43267.1,393781256
fez,62780.8,164791893
fale,66686.9,818190336
bez,71608.5,746206954
kaev,93480.6,739569519
ave,124285,387046159
na,236564,939223549
res,294424,669803798
lit,396188,445937323
war,511793,116753025
sev,525071,382903291
ful,526288,160317735
sus,528287,965497537
ili,549050,151410567
ac,562884,456861457
suj,636008,482021411
eju,646906,204126410
nod,732969,360145140
cob,746237,387397881
hip,916881,716183604
ijo,926715,984310410
oz,1.01309e+06,650363180
te,1.07821e+06,282379187
um,1.0972e+06,348856726
oh,2.08712e+06,228218433
ba,2.30485e+06,691899670
un,2.9088e+06,614824352
li,3.75617e+06,932034758
fo,4.29297e+06,337291258
ro,4.55498e+06,110329254
ki,4.64855e+06,54156369
si,5.16388e+06,533761657
ji,5.29895e+06,668019959
bu,5.61525e+06,685881152
fu,6.04639e+06,670827235
do,6.74391e+06,272437739
es,8.49158e+06,221712632
nac,2.25502e+07,102005906
